…
fieldsmakR(acth7_stuff, SeedZone = 'zone')
#> There is a column(s), `area_ha`, which we can't figure out the purpose of. It will be returned here, but FYI a list of bioclim variables is here: https://www.worldclim.org/data/bioclim.html. If you want to remove this/these columns this should do it: `dplyr::select(x, -c('area_ha'))`
#> Simple feature collection with 3380 features and 8 fields
#> Geometry type: POLYGON
#> Dimension:     XY
#> Bounding box:  xmin: -121.5447 ymin: 36.53208 xmax: -111.0114 ymax: 46.35708
#> Geodetic CRS:  WGS 84
#> # A tibble: 3,380 × 9
#>       ID SeedZone SZName AreaAcres BIO1_R BIO9_m BIO12_mean area_ha
#>    <int>    <int>  <int>     <dbl>  <dbl>  <dbl>      <dbl>   <dbl>
#>  1     1        1      1     4780. 0.0584 0.804       0.179   1935.
#>  2     2        1      1   176473. 0.440  0.154       0.420  71416.
#>  3     3        1      1     3298. 0.224  0.893       0.537   1335.
#>  4     4        1      1     1485. 0.955  0.871       0.253    601.
#>  5     5        1      1     1485. 0.148  0.859       0.430    601.
#>  6     6        1      1    42091. 0.351  0.630       0.754  17034.
#>  7     7        1      1     1318. 0.570  0.396       0.356    533.
#>  8     8        1      1     1317. 0.0334 0.551       0.936    533.
#>  9     9        1      1     6916. 0.461  0.433       0.634   2799.
#> 10    10        1      1     1484. 0.534  0.0775      0.605    600.
#> # ℹ 3,370 more rows
#> # ℹ 1 more variable: geometry <POLYGON [°]>
```
…
