eSTZwritR • eSTZwritR
…
fieldsmakR(acth7_stuff, SeedZone = 'zone')
#> There is a column(s), `area_ha`, which we can't figure out the purpose of.
#>       It will be returned here, but FYI a list of bioclim variables is here https://www.worldclim.org/data/bioclim.html.
#> Simple feature collection with 3380 features and 8 fields
#> Geometry type: POLYGON
#> Dimension:     XY
#> Bounding box:  xmin: -121.5447 ymin: 36.53208 xmax: -111.0114 ymax: 46.35708
#> Geodetic CRS:  WGS 84
#> # A tibble: 3,380 × 9
#>       ID SeedZone SZName AreaAcres BIO1_R  BIO9_m BIO12_mean area_ha
#>    <int>    <int>  <int>     <dbl>  <dbl>   <dbl>      <dbl>   <dbl>
#>  1     1        9      9     2058. 0.0688 0.913        0.749    833.
#>  2     2        9      9     1899. 0.446  0.147        0.926    769.
#>  3     3        9      9     2215. 0.876  0.0125       0.697    896.
#>  4     4        9      9     1745. 0.795  0.470        0.710    706.
#>  5     5        9      9     2381. 0.997  0.00921      0.740    964.
#>  6     6        9      9     9813. 0.881  0.928        0.125   3971.
#>  7     7        9      9     1427. 0.185  0.0941       0.838    577.
#>  8     8        9      9     5533. 0.642  0.663        0.705   2239.
#>  9     9        9      9     1894. 0.849  0.869        0.846    767.
#> 10    10        9      9     2211. 0.409  0.754        0.482    895.
#> # ℹ 3,370 more rows
#> # ℹ 1 more variable: geometry <POLYGON [°]>
…
